{
	"account_nickname":"Default Notepad Account",
	"account_identifier":"7dec7f53-624c-4f0a-92bf-6c34ed6eeb0e",
	"account_protocol":"notepad",
	"account_protocol_identifier":"ddfb1220-4d66-4906-8866-63afd28a6e25",
	"saved_notes":[]
}