{
	"account_nickname":"Default Notepad Account",
	"account_identifier":"805d8a82-7ddb-4eea-9265-a8bc173d13e7",
	"account_protocol":"notepad",
	"account_protocol_identifier":"ddfb1220-4d66-4906-8866-63afd28a6e25",
	"saved_notes":[]
}